<svg viewBox="0 0 110 100" xmlns="http://www.w3.org/2000/svg" fill="white">
    <path d="M15.3,37h4.08V71.06H15.3Zm3.24,30.23h7.71q4.26,0,6.48-2.08c1.48-1.39,2.21-3.42,2.21-6.1V49a8,8,0,0,0-2.21-6.09q-2.22-2.08-6.48-2.09H18.54V37h7.57a16.45,16.45,0,0,1,7.11,1.38,9.43,9.43,0,0,1,4.37,4.11,13.91,13.91,0,0,1,1.48,6.72v9.66a13.83,13.83,0,0,1-1.48,6.7,9.5,9.5,0,0,1-4.38,4.11,16.37,16.37,0,0,1-7.12,1.4H18.54Z"/>
    <path d="M46.34,37h4.07v34.1H46.34ZM48.42,52.8H60.05a5.56,5.56,0,0,0,2.88-.74A4.86,4.86,0,0,0,64.85,50a7.16,7.16,0,0,0,.7-3.15,6.89,6.89,0,0,0-.68-3.15A4.86,4.86,0,0,0,63,41.54a5.49,5.49,0,0,0-2.9-.74H48.42V37H59.86a10.7,10.7,0,0,1,5.19,1.21,8.63,8.63,0,0,1,3.47,3.46,11.48,11.48,0,0,1,0,10.34A8.5,8.5,0,0,1,65,55.42a10.63,10.63,0,0,1-5.18,1.22H48.42Zm10.1,2.79,3.94-1.08,8.72,16.55H66.33Z"/>
    <path d="M82.5,61.41a11.26,11.26,0,0,1-4.85-4.95A17.07,17.07,0,0,1,76,48.63a16.94,16.94,0,0,1,1.67-7.82,11.32,11.32,0,0,1,4.84-4.94,16,16,0,0,1,7.67-1.7,16,16,0,0,1,7.68,1.7,11.32,11.32,0,0,1,4.84,4.94,17,17,0,0,1,1.66,7.82,17.07,17.07,0,0,1-1.66,7.83,11.32,11.32,0,0,1-4.85,4.95,18.13,18.13,0,0,1-15.33,0Zm13.62-2.78a8.94,8.94,0,0,0,3.78-3.87,13.31,13.31,0,0,0,1.3-6.13,13.77,13.77,0,0,0-1.3-6.25,9,9,0,0,0-3.77-4,13.76,13.76,0,0,0-11.93,0,9,9,0,0,0-3.77,4,13.77,13.77,0,0,0-1.31,6.25,13.31,13.31,0,0,0,1.31,6.13,8.87,8.87,0,0,0,3.77,3.87,13.92,13.92,0,0,0,11.92,0Zm-10.7-4.3a7.5,7.5,0,0,1-1.87-5.42v-.85a7.37,7.37,0,0,1,1.87-5.37,7,7,0,0,1,5.26-1.91,7.59,7.59,0,0,1,3.08.6,6.6,6.6,0,0,1,2.38,1.79l-1.85,2.48a5.62,5.62,0,0,0-1.69-1.19,4.53,4.53,0,0,0-1.9-.4,3.53,3.53,0,0,0-2.74,1,4.22,4.22,0,0,0-1,3v.85A4.62,4.62,0,0,0,88,52a3.46,3.46,0,0,0,2.74,1.1,4.2,4.2,0,0,0,2-.47,7.37,7.37,0,0,0,1.84-1.45l1.87,2.48a7.29,7.29,0,0,1-2.49,1.92,7.5,7.5,0,0,1-3.2.66A7,7,0,0,1,85.42,54.33Z"/>
</svg>